ENEM 2021: Ciências da Natureza
…
dat

# A tibble: 1,940,384 × 4
   CO_PROVA_CN    NU_NOTA_CN TX_RESPOSTAS_CN                               TX_GABARITO_CN           
   <chr>               <dbl> <chr>                                         <chr>                    
 1 Rosa                 506. DCBCCBDBCCCCCCDDCDCCCACCABCCECCCCAADCCCBBCADE DABCEDEBEEBBCABEDDCBCBEC…
 2 Cinza                581. CCABBDAEDBEBEDDCAAABBDAADBDCACACEDAABCEABAEBC CDBBBCABEDEDEAAEBACCCBDA…
 3 Rosa                 498. BABCDCCBEBCD.DEDCABCBDEDAABEDADBDBCDECCAEDBCB DABCEDEBEEBBCABEDDCBCBEC…
 4 Amarela              487. BBBDCCBDCCEDBBBCACEBCDADEEADCDEBEDDEBBEBEEECB ADCDCDBBBECDCCDCBCBDABCA…
 5 Azul                 508. BAEDEBDECCEAEDDCBDEDAEECEEEDBDECBDCECBCCDABED EDECABEDABCBEBACCDCBBEEB…
 6 Azul                 651. ECECABECABCDEBECBDCDBEECCDECEAEDBCDCCDBCDACAD EDECABEDABCBEBACCDCBBEEB…
 7 Amarela              378. ACEEDBCCBACEDEADACBEAEBDBABCADBEBACAEACBDCEBD ADCDCDBBBECDCCDCBCBDABCA…
 8 Azul (Digital)       538. EEDCCBEEABCEBACCCACABEADEDDDEDACDBEDCDAACDBAB EDECABEDABCBEBACCDCBBEEB…
 9 Cinza                462. CDBADCBABDBBEBDCAEBDDDBDEDACABADDCBBBCBDDEABB CDBBBCABEDEDEAAEBACCCBDA…
10 Cinza                488. CDCDDAEBDEBABECEACDAAEBAECAEADDBCDDADEAABECDA CDBBBCABEDEDEAAEBACCCBDA…
# … with 1,940,374 more rows
…
