PROTF & ELPT
…
4961 diferentes prontuários / pacientes.

Code

protf |> 
  dplyr::count(PRONTUARIO) |> 
  dplyr::arrange(dplyr::desc(n))

# A tibble: 4,961 × 2
   PRONTUARIO     n
        <dbl> <int>
 1      57229    69
 2      20595    60
 3     251469    53
 4      45010    50
 5      10364    48
 6      14820    45
 7     171475    44
 8     164424    43
 9     411991    42
10     181633    41
# ℹ 4,951 more rows

Destes, 1738 fizeram o exame mais de uma vez (35.03%) - o que fez mais vezes, fez 69 vezes.

Code

protf |> 
  dplyr::count(PRONTUARIO) |> 
  dplyr::arrange(dplyr::desc(n)) |> 
  dplyr::filter(n > 1)

# A tibble: 1,738 × 2
   PRONTUARIO     n
        <dbl> <int>
 1      57229    69
 2      20595    60
 3     251469    53
 4      45010    50
 5      10364    48
 6      14820    45
 7     171475    44
 8     164424    43
 9     411991    42
10     181633    41
# ℹ 1,728 more rows
…
2543 diferentes prontuários / pacientes.

Code

elpt |> 
  dplyr::count(PRONTUARIO) |> 
  dplyr::arrange(dplyr::desc(n))

# A tibble: 2,543 × 2
   PRONTUARIO     n
   <chr>      <int>
 1 13166         36
 2 466463        33
 3 258608        29
 4 332998        28
 5 239252        24
 6 307134        24
 7 201507        21
 8 540310        21
 9 357376        17
10 228772        16
# ℹ 2,533 more rows

Destes, 997 fizeram o exame mais de uma vez (39.21%) - o que fez mais vezes, fez 36 vezes.

Code

elpt |> 
  dplyr::count(PRONTUARIO) |> 
  dplyr::arrange(dplyr::desc(n)) |> 
  dplyr::filter(n > 1)

# A tibble: 997 × 2
   PRONTUARIO     n
   <chr>      <int>
 1 13166         36
 2 466463        33
 3 258608        29
 4 332998        28
 5 239252        24
 6 307134        24
 7 201507        21
 8 540310        21
 9 357376        17
10 228772        16
# ℹ 987 more rows
…
