ELPT
…
NA = não se aplica` != "NA"
    ) |> 
    dplyr::rename(IgG = `18.2 - Qual resultado da dosagem? Colocar apenas número

-Responder com NA em caso de não realização do exame`) |>
    dplyr::rename(ELPT = `16 - Resultado do Primeiro exame`) |>
    dplyr::select(IgG, ELPT) |>
    tidyr::unnest(IgG)  
)

# A tibble: 63 × 2
     IgG  ELPT
   <dbl> <dbl>
 1   412  0.39
 2   600  0.56
 3   406  0.44
 4   424  0.45
 5   701  0.43
 6   893  0.54
 7  1376  0.26
 8   507  0.48
 9   552  0.54
10   415  0.47
# ℹ 53 more rows
…
NA = não se aplica`) |>
    dplyr::rename(IgG = `18.2 - Qual resultado da dosagem? Colocar apenas número

-Responder com NA em caso de não realização do exame`) |>
    dplyr::rename(ELPT = `16 - Resultado do Primeiro exame`) |>
    dplyr::filter(IgG_Referência != "NA") |> 
    dplyr::select(IgG, ELPT, IgG_Referência) |>
    tidyr::unnest(IgG)  
)

# A tibble: 67 × 3
     IgG  ELPT IgG_Referência               
   <dbl> <dbl> <chr>                        
 1   412  0.39 Normal                       
 2   600  0.56 Abaixo do valor de referência
 3   406  0.44 Normal                       
 4   424  0.45 Normal                       
 5   701  0.43 Normal                       
 6   893  0.54 Normal                       
 7  1376  0.26 Normal                       
 8   507  0.48 Normal                       
 9   552  0.54 Normal                       
10   415  0.47 Normal                       
# ℹ 57 more rows
…
Code

proxy |>
  dplyr::filter(IgG_Referência != "Acima do valor de referência")

# A tibble: 66 × 3
     IgG  ELPT IgG_Referência               
   <dbl> <dbl> <chr>                        
 1   412  0.39 Normal                       
 2   600  0.56 Abaixo do valor de referência
 3   406  0.44 Normal                       
 4   424  0.45 Normal                       
 5   701  0.43 Normal                       
 6   893  0.54 Normal                       
 7  1376  0.26 Normal                       
 8   507  0.48 Normal                       
 9   552  0.54 Normal                       
10   415  0.47 Normal                       
# ℹ 56 more rows
…
