PROTF
…
proxy |> dplyr::select(-`1 - Insira o Prontuário do Paciente`)

# A tibble: 146 × 4
   5 - Data de Cadastro …¹ `33.2 - Data de óbito` Intervalo_dias Intervalo_meses
   <dttm>                  <dttm>                          <dbl>           <dbl>
 1 2015-01-23 00:00:00     2016-03-30 00:00:00               432          14.2  
 2 2015-09-30 00:00:00     2017-05-15 00:00:00               593          19.5  
 3 2015-03-22 00:00:00     2015-04-27 00:00:00                36           1.17 
 4 2016-01-20 00:00:00     2016-01-27 00:00:00                 7           0.226
 5 2015-05-28 00:00:00     2015-06-14 00:00:00                17           0.548
 6 2017-01-22 00:00:00     2017-02-01 00:00:00                10           0.323
 7 2015-05-22 00:00:00     2015-06-23 00:00:00                32           1.03 
 8 2015-03-30 00:00:00     2015-08-21 00:00:00               144           4.71 
 9 2019-10-23 00:00:00     2020-02-09 00:00:00               109           3.55 
10 2020-11-03 00:00:00     2021-11-18 00:00:00               380          12.5  
# ℹ 136 more rows
# ℹ abbreviated name: ¹​`5 - Data de Cadastro do Exame`
…
NA = não se aplica` != "NA"
    ) |> 
    dplyr::rename(IgG = `18.2 - Qual resultado da dosagem? Colocar apenas número

-Responder com NA em caso de não realização do exame`) |>
    dplyr::rename(PROTF = `16 - Resultado do Primeiro exame`) |>
    dplyr::select(IgG, PROTF) |>
    tidyr::unnest(IgG)  
)

# A tibble: 138 × 2
     IgG PROTF
   <dbl> <dbl>
 1  1010   1.8
 2   486   1.8
 3   790   2.4
 4   412   2.4
 5   947   2.4
 6   510   2  
 7   616   2.4
 8  1097   1.7
 9  1423   2.1
10   454   1.9
# ℹ 128 more rows
…
NA = não se aplica`) |>
    dplyr::rename(IgG = `18.2 - Qual resultado da dosagem? Colocar apenas número

-Responder com NA em caso de não realização do exame`) |>
    dplyr::rename(PROTF = `16 - Resultado do Primeiro exame`) |>
    dplyr::filter(IgG_Referência != "NA") |> 
    dplyr::select(IgG, PROTF, IgG_Referência) |>
    tidyr::unnest(IgG)  
)

# A tibble: 147 × 3
     IgG PROTF IgG_Referência               
   <dbl> <dbl> <chr>                        
 1  1010   1.8 Normal                       
 2   486   1.8 Abaixo do valor de referência
 3   790   2.4 Normal                       
 4   412   2.4 Normal                       
 5   729   2.4 Normal                       
 6   947   2.4 Normal                       
 7   510   2   Normal                       
 8   616   2.4 Abaixo do valor de referência
 9  1097   1.7 Normal                       
10  1423   2.1 Normal                       
# ℹ 137 more rows
…
